
digraph G {

  subgraph {
    node [style=filled, color=blue, fontcolor=blue, fillcolor=lightcyan];
    root [label="../"]
    "a/"
    b [label="../"]
    "c/" "d/"
    "e/" [label=""]
    "f/"
  }

  subgraph {
    node [style=filled, fillcolor=lightgray];
    g i k m n p q r s
  }

  root -> "a/"
  root -> b [dir=back]
  "a/" -> "c/"
  "a/" -> "d/"
  b -> "e/" [dir=back]
  b -> "f/"

  root -> g
  "a/" -> i
  b -> k
  "c/" -> m
  "c/" -> n
  "d/" -> p
  "e/" -> q
  "e/" -> r
  "f/" -> s
}

